{
    "data-root": "/scratch/docker",
    "runtimes": {
        "nvidia": {
            "path": "nvidia-container-runtime",
            "runtimeArgs": []
        }
    },
    "default-shm-size" : "256M"
}
